Id,Defendent,Victim,Death
95,White,White,No
83,White,White,No
39,White,White,No
313,Black,Black,No
211,Black,White,No
91,White,White,No
106,White,White,No
230,Black,Black,No
315,Black,Black,No
221,Black,White,No
250,Black,Black,No
25,White,White,No
210,Black,White,No
104,White,White,No
17,White,White,Yes
46,White,White,No
231,Black,Black,No
29,White,White,No
172,Black,White,No
133,White,White,No
16,White,White,Yes
225,Black,Black,Yes
281,Black,Black,No
278,Black,Black,No
50,White,White,No
51,White,White,No
99,White,White,No
236,Black,Black,No
150,White,White,No
180,Black,White,No
136,White,White,No
168,Black,White,Yes
273,Black,Black,No
178,Black,White,No
246,Black,Black,No
272,Black,Black,No
200,Black,White,No
12,White,White,Yes
169,Black,White,Yes
176,Black,White,No
161,Black,White,Yes
264,Black,Black,No
162,Black,White,Yes
286,Black,Black,No
123,White,White,No
188,Black,White,No
255,Black,Black,No
139,White,White,No
112,White,White,No
303,Black,Black,No
258,Black,Black,No
181,Black,White,No
318,Black,Black,No
144,White,White,No
186,Black,White,No
190,Black,White,No
78,White,White,No
30,White,White,No
198,Black,White,No
298,Black,Black,No
0,White,White,Yes
87,White,White,No
118,White,White,No
238,Black,Black,No
73,White,White,No
44,White,White,No
283,Black,Black,No
270,Black,Black,No
292,Black,Black,No
158,White,Black,No
35,White,White,No
294,Black,Black,No
151,White,Black,No
195,Black,White,No
295,Black,Black,No
2,White,White,Yes
121,White,White,No
199,Black,White,No
111,White,White,No
4,White,White,Yes
252,Black,Black,No
110,White,White,No
322,Black,Black,No
300,Black,Black,No
45,White,White,No
266,Black,Black,No
187,Black,White,No
249,Black,Black,No
248,Black,Black,No
302,Black,Black,No
182,Black,White,No
269,Black,Black,No
64,White,White,No
207,Black,White,No
103,White,White,No
274,Black,Black,No
324,Black,Black,No
107,White,White,No
71,White,White,No
76,White,White,No
285,Black,Black,No
251,Black,Black,No
21,White,White,No
31,White,White,No
259,Black,Black,No
94,White,White,No
157,White,Black,No
197,Black,White,No
163,Black,White,Yes
98,White,White,No
316,Black,Black,No
234,Black,Black,No
240,Black,Black,No
218,Black,White,No
52,White,White,No
319,Black,Black,No
202,Black,White,No
312,Black,Black,No
81,White,White,No
18,White,White,Yes
137,White,White,No
63,White,White,No
113,White,White,No
160,Black,White,Yes
317,Black,Black,No
80,White,White,No
37,White,White,No
257,Black,Black,No
65,White,White,No
120,White,White,No
119,White,White,No
69,White,White,No
265,Black,Black,No
242,Black,Black,No
77,White,White,No
15,White,White,Yes
293,Black,Black,No
142,White,White,No
175,Black,White,No
125,White,White,No
145,White,White,No
108,White,White,No
148,White,White,No
13,White,White,Yes
134,White,White,No
212,Black,White,No
289,Black,Black,No
79,White,White,No
260,Black,Black,No
154,White,Black,No
85,White,White,No
36,White,White,No
149,White,White,No
305,Black,Black,No
276,Black,Black,No
153,White,Black,No
241,Black,Black,No
159,White,Black,No
131,White,White,No
1,White,White,Yes
74,White,White,No
84,White,White,No
201,Black,White,No
214,Black,White,No
223,Black,Black,Yes
310,Black,Black,No
291,Black,Black,No
109,White,White,No
34,White,White,No
224,Black,Black,Yes
325,Black,Black,No
143,White,White,No
288,Black,Black,No
141,White,White,No
152,White,Black,No
10,White,White,Yes
127,White,White,No
237,Black,Black,No
122,White,White,No
5,White,White,Yes
86,White,White,No
7,White,White,Yes
41,White,White,No
38,White,White,No
126,White,White,No
42,White,White,No
209,Black,White,No
57,White,White,No
304,Black,Black,No
92,White,White,No
167,Black,White,Yes
135,White,White,No
191,Black,White,No
275,Black,Black,No
164,Black,White,Yes
222,Black,White,No
307,Black,Black,No
70,White,White,No
3,White,White,Yes
68,White,White,No
40,White,White,No
62,White,White,No
49,White,White,No
102,White,White,No
235,Black,Black,No
105,White,White,No
253,Black,Black,No
61,White,White,No
27,White,White,No
155,White,Black,No
88,White,White,No
11,White,White,Yes
173,Black,White,No
279,Black,Black,No
301,Black,Black,No
56,White,White,No
114,White,White,No
216,Black,White,No
287,Black,Black,No
90,White,White,No
194,Black,White,No
189,Black,White,No
116,White,White,No
8,White,White,Yes
193,Black,White,No
245,Black,Black,No
97,White,White,No
156,White,Black,No
256,Black,Black,No
128,White,White,No
297,Black,Black,No
48,White,White,No
28,White,White,No
263,Black,Black,No
24,White,White,No
290,Black,Black,No
277,Black,Black,No
215,Black,White,No
59,White,White,No
243,Black,Black,No
311,Black,Black,No
262,Black,Black,No
129,White,White,No
54,White,White,No
204,Black,White,No
32,White,White,No
117,White,White,No
60,White,White,No
89,White,White,No
132,White,White,No
184,Black,White,No
320,Black,Black,No
314,Black,Black,No
308,Black,Black,No
229,Black,Black,No
20,White,White,No
309,Black,Black,No
124,White,White,No
220,Black,White,No
271,Black,Black,No
165,Black,White,Yes
22,White,White,No
228,Black,Black,Yes
226,Black,Black,Yes
185,Black,White,No
217,Black,White,No
296,Black,Black,No
147,White,White,No
96,White,White,No
205,Black,White,No
233,Black,Black,No
268,Black,Black,No
166,Black,White,Yes
284,Black,Black,No
299,Black,Black,No
6,White,White,Yes
9,White,White,Yes
206,Black,White,No
179,Black,White,No
177,Black,White,No
43,White,White,No
140,White,White,No
58,White,White,No
130,White,White,No
192,Black,White,No
100,White,White,No
282,Black,Black,No
183,Black,White,No
146,White,White,No
23,White,White,No
14,White,White,Yes
93,White,White,No
82,White,White,No
203,Black,White,No
19,White,White,No
33,White,White,No
47,White,White,No
306,Black,Black,No
101,White,White,No
239,Black,Black,No
174,Black,White,No
66,White,White,No
247,Black,Black,No
254,Black,Black,No
280,Black,Black,No
53,White,White,No
267,Black,Black,No
26,White,White,No
323,Black,Black,No
261,Black,Black,No
196,Black,White,No
244,Black,Black,No
213,Black,White,No
138,White,White,No
227,Black,Black,Yes
219,Black,White,No
75,White,White,No
232,Black,Black,No
208,Black,White,No
115,White,White,No
72,White,White,No
321,Black,Black,No
55,White,White,No
170,Black,White,Yes
171,Black,White,No
67,White,White,No
